…
# find paths to example basic and meta data:
basic_path <- mpath_example(file ='example_basic.csv')
meta_path <- mpath_example(file = 'example_meta.csv')

# read the data
data <- read_mpath(
  file = basic_path,
  meta_data = meta_path
)

print(data)
#> # A tibble: 2,221 × 100
#>   connectionId legacyCode  code       alias initials accountCode scheduledBeepId
#>          <int> <chr>       <chr>      <chr> <chr>    <chr>                 <int>
#> 1       234609 !9v48@jp7a7 !byyo kjyt abc   Ver      jp7a7                    -1
#> 2       234609 !9v48@jp7a7 !byyo kjyt abc   Ver      jp7a7              28626776
#> 3       234609 !9v48@jp7a7 !byyo kjyt abc   Ver      jp7a7              28626777
#> 4       234609 !9v48@jp7a7 !byyo kjyt abc   Ver      jp7a7              28626781
#> 5       234609 !9v48@jp7a7 !byyo kjyt abc   Ver      jp7a7              28626782
#> # ℹ 2,216 more rows
#> # ℹ 93 more variables: sentBeepId <int>, reminderForOriginalSentBeepId <int>,
#> #   questionListName <chr>, questionListLabel <chr>, fromProtocolName <chr>,
#> #   timeStampScheduled <int>, timeStampSent <int>, timeStampStart <int>,
#> #   timeStampStop <int>, originalTimeStampSent <int>, timeZoneOffset <int>,
#> #   deltaUTC <dbl>, consent_yesno_yesno <int>,
#> #   gender_multipleChoice_index <int>, gender_multipleChoice_string <chr>, …
```
…
