mpathr
…
This function takes as argument a valid_col, that takes
a logical column that stores whether the beep was answered by the
participant, or not, as well as a participant_col, that
identifies each separate participant.

We will show how to use this function with the
example_data, that contains data from the same study as the
example_basic.csv file, but after some cleaning.

example_data
#> # A tibble: 1,980 × 47
#>    participant code       questionnaire  scheduled           sent               
#>          <int> <chr>      <chr>          <dttm>              <dttm>             
#>  1           2 !bxxm dqfu main_question… 2024-04-24 08:00:57 2024-04-24 08:00:59
#>  2           2 !bxxm dqfu main_question… 2024-04-24 09:25:44 2024-04-24 09:25:45
#>  3           2 !bxxm dqfu main_question… 2024-04-24 11:14:18 2024-04-24 11:14:20
#>  4           2 !bxxm dqfu main_question… 2024-04-24 12:58:05 2024-04-24 12:58:06
#>  5           2 !bxxm dqfu main_question… 2024-04-24 14:19:51 2024-04-24 14:19:52
#>  6           2 !bxxm dqfu main_question… 2024-04-24 15:43:05 2024-04-24 15:43:06
#>  7           2 !bxxm dqfu main_question… 2024-04-24 17:12:03 2024-04-24 17:12:04
#>  8           2 !bxxm dqfu main_question… 2024-04-24 18:07:23 2024-04-24 18:07:25
#>  9           2 !bxxm dqfu main_question… 2024-04-24 20:01:21 2024-04-24 20:01:22
#> 10           2 !bxxm dqfu main_question… 2024-04-24 21:00:14 2024-04-24 21:00:17
#> # ℹ 1,970 more rows
#> # ℹ 42 more variables: start <dttm>, stop <dttm>, phone_server_offset <dbl>,
#> #   obs_n <int>, day_n <int>, obs_n_day <int>, answered <lgl>, bpm_day <dbl>,
#> #   gender <int>, gender_string <chr>, age <chr>, life_satisfaction <dbl>,
#> #   neuroticism <dbl>, slider_happy <int>, slider_sad <int>,
#> #   slider_angry <int>, slider_relaxed <int>, slider_anxious <int>,
#> #   slider_energetic <int>, slider_tired <int>, location_index <int>, …
…
