mpathr • mpathr
…
We can obtain the paths to the example basic data and meta data using
the mpath_example() function:

# find paths to example basic and meta data:
basic_path <- mpath_example(file = "example_basic.csv")
meta_path <- mpath_example("example_meta.csv")

# read the data
data <- read_mpath(
  file = basic_path,
  meta_data = meta_path
)

data
#> # A tibble: 2,221 × 100
#>    connectionId legacyCode  code      alias initials accountCode scheduledBeepId
#>           <int> <chr>       <chr>     <chr> <chr>    <chr>                 <int>
#>  1       234609 !9v48@jp7a7 !byyo kj… abc   Ver      jp7a7                    -1
#>  2       234609 !9v48@jp7a7 !byyo kj… abc   Ver      jp7a7              28626776
#>  3       234609 !9v48@jp7a7 !byyo kj… abc   Ver      jp7a7              28626777
#>  4       234609 !9v48@jp7a7 !byyo kj… abc   Ver      jp7a7              28626781
#>  5       234609 !9v48@jp7a7 !byyo kj… abc   Ver      jp7a7              28626782
#>  6       234609 !9v48@jp7a7 !byyo kj… abc   Ver      jp7a7              28626784
#>  7       234609 !9v48@jp7a7 !byyo kj… abc   Ver      jp7a7              28626785
#>  8       234609 !9v48@jp7a7 !byyo kj… abc   Ver      jp7a7              28626786
#>  9       234609 !9v48@jp7a7 !byyo kj… abc   Ver      jp7a7              28626796
#> 10       234609 !9v48@jp7a7 !byyo kj… abc   Ver      jp7a7              28626795
#> # ℹ 2,211 more rows
#> # ℹ 93 more variables: sentBeepId <int>, reminderForOriginalSentBeepId <int>,
#> #   questionListName <chr>, questionListLabel <chr>, fromProtocolName <chr>,
#> #   timeStampScheduled <int>, timeStampSent <int>, timeStampStart <int>,
#> #   timeStampStop <int>, originalTimeStampSent <int>, timeZoneOffset <int>,
#> #   deltaUTC <dbl>, consent_yesno_yesno <int>,
#> #   gender_multipleChoice_index <int>, gender_multipleChoice_string <chr>, …
…
This function takes as argument a valid_col, that takes
a logical column that stores whether the beep was answered by the
participant, or not, as well as a participant_col, that
identifies each distinct participant.

We will show how to use this function with the
example_data, that contains data from the same study as the
example_basic.csv file, but after some cleaning.

example_data
#> # A tibble: 1,980 × 47
#>    participant code       questionnaire  scheduled           sent               
#>          <int> <chr>      <chr>          <dttm>              <dttm>             
#>  1           2 !bxxm dqfu main_question… 2024-04-24 08:00:57 2024-04-24 08:00:59
#>  2           2 !bxxm dqfu main_question… 2024-04-24 09:25:44 2024-04-24 09:25:45
#>  3           2 !bxxm dqfu main_question… 2024-04-24 11:14:18 2024-04-24 11:14:20
#>  4           2 !bxxm dqfu main_question… 2024-04-24 12:58:05 2024-04-24 12:58:06
#>  5           2 !bxxm dqfu main_question… 2024-04-24 14:19:51 2024-04-24 14:19:52
#>  6           2 !bxxm dqfu main_question… 2024-04-24 15:43:05 2024-04-24 15:43:06
#>  7           2 !bxxm dqfu main_question… 2024-04-24 17:12:03 2024-04-24 17:12:04
#>  8           2 !bxxm dqfu main_question… 2024-04-24 18:07:23 2024-04-24 18:07:25
#>  9           2 !bxxm dqfu main_question… 2024-04-24 20:01:21 2024-04-24 20:01:22
#> 10           2 !bxxm dqfu main_question… 2024-04-24 21:00:14 2024-04-24 21:00:17
#> # ℹ 1,970 more rows
#> # ℹ 42 more variables: start <dttm>, stop <dttm>, phone_server_offset <dbl>,
#> #   obs_n <int>, day_n <int>, obs_n_day <int>, answered <lgl>, bpm_day <dbl>,
#> #   gender <int>, gender_string <chr>, age <chr>, life_satisfaction <dbl>,
#> #   neuroticism <dbl>, slider_happy <int>, slider_sad <int>,
#> #   slider_angry <int>, slider_relaxed <int>, slider_anxious <int>,
#> #   slider_energetic <int>, slider_tired <int>, location_index <int>, …
…
